%YAML 1.1
%TAG !u! tag:unity3d.com,2011:
--- !u!1001 &100100000
Prefab:
  m_ObjectHideFlags: 1
  serializedVersion: 2
  m_Modification:
    m_TransformParent: {fileID: 0}
    m_Modifications: []
    m_RemovedComponents: []
  m_ParentPrefab: {fileID: 0}
  m_RootGameObject: {fileID: 1027252913256604}
  m_IsPrefabParent: 1
--- !u!1 &1027252913256604
GameObject:
  m_ObjectHideFlags: 0
  m_PrefabParentObject: {fileID: 0}
  m_PrefabInternal: {fileID: 100100000}
  serializedVersion: 5
  m_Component:
  - component: {fileID: 4819484232659026}
  - component: {fileID: 114016924341305948}
  m_Layer: 0
  m_Name: GoogleMobileAds
  m_TagString: Untagged
  m_Icon: {fileID: 0}
  m_NavMeshLayer: 0
  m_StaticEditorFlags: 0
  m_IsActive: 1
--- !u!4 &4819484232659026
Transform:
  m_ObjectHideFlags: 1
  m_PrefabParentObject: {fileID: 0}
  m_PrefabInternal: {fileID: 100100000}
  m_GameObject: {fileID: 1027252913256604}
  m_LocalRotation: {x: 0, y: 0, z: 0, w: 1}
  m_LocalPosition: {x: 0, y: 0, z: 0}
  m_LocalScale: {x: 1, y: 1, z: 1}
  m_Children: []
  m_Father: {fileID: 0}
  m_RootOrder: 0
  m_LocalEulerAnglesHint: {x: 0, y: 0, z: 0}
--- !u!114 &114016924341305948
MonoBehaviour:
  m_ObjectHideFlags: 1
  m_PrefabParentObject: {fileID: 0}
  m_PrefabInternal: {fileID: 100100000}
  m_GameObject: {fileID: 1027252913256604}
  m_Enabled: 1
  m_EditorHideFlags: 0
  m_Script: {fileID: 11500000, guid: 8c0a3474ede99dd479f53146a680eb6d, type: 3}
  m_Name: 
  m_EditorClassIdentifier: 
  enableDevelopmentBuild: 1
  enableTestGUI: 1
  testDeviceID: https://play.google.com/store/apps/details?id=com.evozi.deviceid
  enable_Android_Platform: 1
  enable_iOS_Platform: 0
  appIdRewardBasedVideoAds_Android: 
  appIdRewardBasedVideoAds_iOS: 
  enableRewardBasedVideoAd: 1
  rewardedVideoAdSkipCallback: 0
  rewardedVideoAdFailedCallBack: 0
  OnRewardBasedVideoAdFinishedEvent:
    m_PersistentCalls:
      m_Calls: []
    m_TypeName: UnityEngine.Events.UnityEvent, UnityEngine.CoreModule, Version=0.0.0.0,
      Culture=neutral, PublicKeyToken=null
  OnRewardBasedVideoAdSkippedEvent:
    m_PersistentCalls:
      m_Calls: []
    m_TypeName: UnityEngine.Events.UnityEvent, UnityEngine.CoreModule, Version=0.0.0.0,
      Culture=neutral, PublicKeyToken=null
  OnRewardBasedVideoAdFailedEvent:
    m_PersistentCalls:
      m_Calls: []
    m_TypeName: UnityEngine.Events.UnityEvent, UnityEngine.CoreModule, Version=0.0.0.0,
      Culture=neutral, PublicKeyToken=null
  adUnitIdInterstetialAd_Android: 
  adUnitIdInterstetialAd_iOS: 
  enableInterstetialAd: 1
  interstitialAdFailedCallback: 0
  interstitialAdClosedCallback: 0
  OnInterstitialAdFailedEvent:
    m_PersistentCalls:
      m_Calls: []
    m_TypeName: UnityEngine.Events.UnityEvent, UnityEngine.CoreModule, Version=0.0.0.0,
      Culture=neutral, PublicKeyToken=null
  OnInterstitialAdClosedEvent:
    m_PersistentCalls:
      m_Calls: []
    m_TypeName: UnityEngine.Events.UnityEvent, UnityEngine.CoreModule, Version=0.0.0.0,
      Culture=neutral, PublicKeyToken=null
  adUnitIdBannerViewAd_Android: 
  adUnitIdBannerViewAd_iOS: 
  bannerAdPosition: 1
  enableBannerViewAd: 1
  bannerViewAdFailedCallback: 0
  bannerViewAdClosedCallback: 0
  OnBannerViewAdFailedEvent:
    m_PersistentCalls:
      m_Calls: []
    m_TypeName: UnityEngine.Events.UnityEvent, UnityEngine.CoreModule, Version=0.0.0.0,
      Culture=neutral, PublicKeyToken=null
  OnBannerViewAdClosedEvent:
    m_PersistentCalls:
      m_Calls: []
    m_TypeName: UnityEngine.Events.UnityEvent, UnityEngine.CoreModule, Version=0.0.0.0,
      Culture=neutral, PublicKeyToken=null
